{
	"data": {
		"filename": "USDJPY_20180815-020000_20200115-173000_15.csv",
		"columns": [
			"Close",
			"Volume"
		],
		"sequence_length": 50,
		"train_test_split": 0.85,
		"normalise": false
	},
	"training": {
		"epochs": 20,
		"batch_size": 128
	},
	"model": {
		"loss": "mse",
		"optimizer": "adam",
		"save_dir": "saved_models",
		"layers": [
			{
				"type": "lstm",
				"neurons": 100,
				"input_timesteps": 49,
				"input_dim": 2,
				"return_seq": true
			},
			{
				"type": "dropout",
				"rate": 0.2
			},
			{
				"type": "lstm",
				"neurons": 100,
				"return_seq": true
			},
			{
				"type": "lstm",
				"neurons": 100,
				"return_seq": false
			},
			{
				"type": "dropout",
				"rate": 0.2
			},
			{
				"type": "dense",
				"neurons": 1,
				"activation": "linear"
			}
		]
	}
}
